## Interface: 11307
## LoadOnDemand: 1

## Title: Lib: SharedMedia-3.0
## Notes: Shared handling of media data (fonts, sounds, textures, ...) between addons.
## Author: Elkano
## Version: 3.0-112
## X-Website: http://www.wowace.com/projects/libsharedmedia-3-0/
## X-Category: Library

## X-Revision: 112
## X-Date: 2019-07-11T16:45:13Z

LibStub\LibStub.lua
CallbackHandler-1.0\CallbackHandler-1.0.lua

LibSharedMedia-3.0\lib.xml

