## Interface: 11307
## Title: Bagnon
## Author: Tuller & Jaliborc (João Cardoso)
## Notes: Single window displays for your inventory and bank
## OptionalDeps: BagBrother, WoWUnit, TestPoncho
## SavedVariables: Bagnon_Sets
## Version: 9.1.2

addons\main\main.xml
