## Interface: 11307

## Title: BigWigs [|cffeda55fOnyxia|r]
## Title-deDE: BigWigs [|cffeda55fOnyxia|r]
## Title-esES: BigWigs [|cffeda55fOnyxia|r]
## Title-esMX: BigWigs [|cffeda55fOnyxia|r]
## Title-frFR: BigWigs [|cffeda55fOnyxia|r]
## Title-itIT: BigWigs [|cffeda55fOnyxia|r]
## Title-koKR: BigWigs [|cffeda55f오닉시아|r]
## Title-ptBR: BigWigs [|cffeda55fOnyxia|r]
## Title-ruRU: BigWigs [|cffeda55fОниксия|r]
## Title-zhCN: BigWigs [|cffeda55f奥妮克希亚|r]
## Title-zhTW: BigWigs [|cffeda55f奧妮克希亞|r]
## Notes: BigWigs Onyxia Modules
## Notes-deDE: BigWigs Onyxia Modules
## Notes-esES: BigWigs Onyxia Modules
## Notes-esMX: BigWigs Onyxia Modules
## Notes-frFR: BigWigs Onyxia Modules
## Notes-itIT: BigWigs Onyxia Modules
## Notes-koKR: BigWigs Onyxia Modules
## Notes-ruRU: BigWigs Onyxia Modules
## Notes-ptBR: BigWigs Onyxia Modules
## Notes-zhCN: 奥妮克希亚模块。
## Notes-zhTW: BigWigs Onyxia Modules
## Version: v31-classic

## LoadOnDemand: 1
## Dependencies: BigWigs

## X-Category: Raid
## X-BigWigs-LoadOn-InstanceId: 249

modules.xml
