## Interface: 11304
## Title: SmartLoot
## Version: 0.1
## Author: Necros
## SavedVariablesPerCharacter: SmartLoot_Options, SmartLoot_Autoroll
SmartLoot.lua
SmartLootButton.lua
SmartLootOptions.lua
SmartLoot.xml
SmartLootButton.xml
SmartLootOptions.xml
