## Interface: 11307
## Title: Bagnon Config
## Author: Tuller and Jaliborc (João Cardoso)
## Notes: An options menu for Bagnon
## Dependencies: Bagnon
## LoadOnDemand: 1

..\Bagnon\addons\config\config.xml
