## Interface: 11307
## Title: Bagnon Void Storage
## Author: Jaliborc (João Cardoso)
## Notes: Single window display for your void storage
## RequiredDeps: Bagnon
## LoadOnDemand: 1

..\Bagnon\addons\vault\vault.xml
