## Interface: 11307

## Title: BigWigs [|cffeda55fOptions|r]
## Title-zhCN: BigWigs [|cffeda55f选项|r]
## Title-zhTW: BigWigs [|cffeda55f選項|r]
## Title-deDE: BigWigs [|cffeda55fOptionen|r]
## Title-frFR: BigWigs [|cffeda55fOptions|r]
## Title-itIT: BigWigs [|cffeda55fOpzioni|r]
## Title-koKR: BigWigs [|cffeda55f옵션|r]
## Title-ruRU: BigWigs [|cffeda55fНастройки|r]
## Title-ptBR: BigWigs [|cffeda55fOptions|r]
## Title-esES: BigWigs [|cffeda55fOpciones|r]
## Title-esMX: BigWigs [|cffeda55fOpciones|r]
## Notes: BigWigs Configuration Options
## Notes-zhCN: BigWigs 配置选项。
## Notes-zhTW: BigWigs 配置選項。
## Notes-deDE: BigWigs Einstellungsmöglichkeiten.
## Notes-frFR: Options de configuration de BigWigs.
## Notes-itIT: Opzioni di configurazione per BigWigs
## Notes-koKR: BigWigs 구성 옵션
## Notes-ruRU: Модуль настроек BigWigs
## Notes-ptBR: BigWigs Configuration Options
## Notes-esES: Opciones de configuración de BigWigs.
## Notes-esMX: Opciones de configuración de BigWigs.
## Version: v31-classic

## LoadOnDemand: 1
## Dependencies: BigWigs, BigWigs_Core, BigWigs_Plugins

libs.xml
modules.xml

