## Interface: 11307
## Title: Bagnon Guild Bank
## Author: Tuller & Jaliborc (João Cardoso)
## Notes: Single window display for your guild bank
## RequiredDeps: Bagnon
## LoadOnDemand: 1

..\Bagnon\addons\guild\guild.xml
